<?xml version="1.0" encoding="utf-8"?>
<!-- Generator: Adobe Illustrator 16.0.0, SVG Export Plug-In . SVG Version: 6.00 Build 0)  -->
<!DOCTYPE svg PUBLIC "-//W3C//DTD SVG 1.1//EN" "http://www.w3.org/Graphics/SVG/1.1/DTD/svg11.dtd">
<svg version="1.1" id="Layer_1" xmlns="http://www.w3.org/2000/svg" xmlns:xlink="http://www.w3.org/1999/xlink" x="0px" y="0px"
	 width="50px" height="50px" viewBox="0 0 50 50" enable-background="new 0 0 50 50" xml:space="preserve">
<g id="Flat_3">
	<g>
		<g>
			<path d="M37.07,34.036c-0.359,0-0.621,0.103-0.778,0.317c-0.158,0.199-0.231,0.55-0.231,1.031v1.163h2.001v-1.16
				c0-0.484-0.082-0.83-0.241-1.032C37.67,34.14,37.414,34.036,37.07,34.036z"/>
		</g>
		<g>
			<path d="M29.266,33.998c-0.163,0-0.322,0.033-0.481,0.11c-0.156,0.077-0.312,0.194-0.465,0.354v7.173
				c0.184,0.183,0.361,0.325,0.537,0.405c0.174,0.084,0.355,0.125,0.548,0.125c0.276,0,0.479-0.08,0.608-0.245
				c0.13-0.162,0.201-0.422,0.201-0.792v-5.945c0-0.389-0.081-0.685-0.241-0.885C29.807,34.096,29.568,33.998,29.266,33.998z"/>
		</g>
		<g>
			<path d="M41.846,25.074c-1.861-1.857-17.528-1.883-17.528-1.883s-15.665,0.026-17.53,1.881C4.922,26.935,4.92,36.113,4.92,36.166
				c0,0.068,0.004,9.234,1.868,11.097c1.865,1.855,17.53,1.896,17.53,1.896s15.667-0.041,17.528-1.896
				c1.87-1.863,1.888-11.097,1.888-11.097C43.73,36.117,43.711,26.935,41.846,25.074z M16.867,30.486h-2.638v13.336h-2.553V30.486
				H9.038V28.22h7.827v2.267H16.867z M24.325,43.821h-2.258v-1.266c-0.421,0.469-0.854,0.825-1.309,1.065
				c-0.453,0.249-0.89,0.364-1.313,0.364c-0.526,0-0.914-0.168-1.186-0.514c-0.261-0.345-0.396-0.853-0.396-1.542v-9.622h2.261
				v8.829c0,0.275,0.049,0.472,0.139,0.594c0.102,0.124,0.254,0.183,0.466,0.183c0.166,0,0.377-0.078,0.634-0.242
				c0.256-0.163,0.487-0.366,0.703-0.615v-8.748h2.258V43.821z M32.541,41.442c0,0.814-0.18,1.439-0.533,1.874
				c-0.352,0.434-0.867,0.649-1.539,0.649c-0.444,0-0.838-0.081-1.182-0.248c-0.348-0.169-0.673-0.426-0.968-0.779v0.883h-2.286
				V28.215h2.286v5.026c0.309-0.35,0.628-0.62,0.969-0.801c0.349-0.183,0.694-0.273,1.046-0.273c0.721,0,1.265,0.246,1.641,0.73
				c0.38,0.492,0.568,1.211,0.568,2.153v6.392H32.541z M40.389,38.347h-4.328v2.164c0,0.608,0.073,1.026,0.219,1.265
				c0.152,0.235,0.406,0.349,0.769,0.349c0.374,0,0.636-0.099,0.786-0.299c0.146-0.198,0.228-0.634,0.228-1.314v-0.525h2.327v0.594
				c0,1.183-0.281,2.069-0.85,2.67c-0.565,0.595-1.414,0.889-2.542,0.889c-1.014,0-1.812-0.312-2.395-0.949
				c-0.581-0.631-0.878-1.5-0.878-2.613v-5.169c0-0.996,0.323-1.814,0.964-2.442c0.638-0.629,1.464-0.942,2.478-0.942
				c1.036,0,1.831,0.294,2.391,0.875c0.555,0.582,0.832,1.419,0.832,2.51V38.347z"/>
		</g>
		<g>
			<path d="M37.062,18.364h-2.55v-1.401c-0.465,0.514-0.955,0.91-1.467,1.179c-0.51,0.27-1.003,0.404-1.48,0.404
				c-0.596,0-1.035-0.189-1.333-0.566c-0.297-0.378-0.445-0.945-0.445-1.7V5.681h2.544v9.724c0,0.3,0.06,0.518,0.166,0.652
				c0.103,0.134,0.279,0.201,0.517,0.201c0.187,0,0.426-0.09,0.711-0.266c0.285-0.179,0.55-0.405,0.784-0.684V5.681h2.551
				L37.062,18.364L37.062,18.364z"/>
		</g>
		<g>
			<path d="M26.713,6.284c-0.676-0.615-1.543-0.92-2.595-0.92c-1.155,0-2.079,0.292-2.764,0.874
				c-0.688,0.582-1.033,1.364-1.029,2.35v6.572c0,1.079,0.336,1.936,1,2.574c0.67,0.637,1.565,0.955,2.678,0.955
				c1.159,0,2.066-0.308,2.732-0.926c0.656-0.618,0.987-1.469,0.987-2.553V8.653C27.722,7.689,27.383,6.896,26.713,6.284z
				 M25.125,15.397c0,0.336-0.102,0.604-0.306,0.802c-0.204,0.191-0.479,0.29-0.822,0.29c-0.339,0-0.598-0.093-0.779-0.285
				c-0.181-0.193-0.274-0.46-0.274-0.807v-6.91c0-0.276,0.101-0.501,0.293-0.672c0.196-0.17,0.446-0.253,0.76-0.253
				c0.333,0,0.608,0.084,0.815,0.253c0.209,0.171,0.312,0.396,0.312,0.672V15.397z"/>
		</g>
		<g>
			<polygon points="13.381,1.173 10.491,1.173 13.906,11.553 13.906,18.364 16.777,18.364 16.777,11.233 20.114,1.173 17.196,1.173 
				15.424,8.045 15.246,8.045 			"/>
		</g>
	</g>
</g>
</svg>
